750 1 0
89 31 29 47 99 44 23 40 44 51 81 14 61 17 63 21 32 51 34 88 30 52 53 91 14 57 59 65 62 70 35 49 82 66 61 60 88 39 27 38 20 61 54 72 56 40 34 63 89 20 96 54 88 92 24 99 60 89 58 23 36 77 34 82 20 40 16 46 18 90 78 24 19 86 96 72 62 77 71 48 50 53 41 98 26 93 52 84 49 35 13 73 94 64 61 12 99 17 82 36 36 18 24 69 68 84 84 48 54 48 17 44 11 95 37 52 74 62 83 17 79 98 97 62 29 17 73 78 55 37 59 36 23 91 84 44 63 98 12 100 81 30 93 32 95 27 73 43 33 76 51 62 72 72 28 93 76 35 89 75 78 45 18 86 34 29 97 36 30 87 47 66 21 40 52 76 17 57 53 78 35 52 91 100 41 77 61 11 96 27 51 70 85 91 44 11 23 21 16 91 72 77 99 76 12 57 30 68 65 52 34 10 54 84 56 98 81 74 89 20 68 75 94 39 82 29 32 16 57 66 45 14 93 41 45 45 25 92 55 57 70 61 26 27 47 64 56 50 17 16 19 47 42 98 60 55 97 100 66 31 96 63 47 48 21 17 62 86 15 53 64 32 40 41 93 75 73 10 41 15 57 37 11 14 71 86 75 82 27 58 35 83 99 13 51 90 48 43 49 37 50 20 100 68 78 26 48 68 95 80 50 55 12 84 51 55 40 32 89 17 81 52 13 100 44 11 85 12 95 81 77 23 89 91 85 30 100 56 55 41 82 20 98 54 81 24 44 77 78 42 23 96 75 27 89 100 63 52 96 66 82 80 54 54 99 82 70 83 28 99 100 11 81 93 57 90 89 86 68 31 69 11 24 28 26 34 63 21 34 40 21 48 95 76 42 64 46 74 85 34 52 12 89 94 60 23 35 38 57 39 10 13 66 27 12 71 40 17 97 62 15 75 82 29 77 41 47 73 65 72 65 17 92 12 92 25 81 88 60 60 65 20 41 50 37 11 37 93 20 26 11 61 67 49 30 71 16 87 42 13 37 83 56 28 67 62 91 20 14 94 99 40 50 63 63 73 28 42 33 80 79 14 56 36 48 68 81 54 22 96 16 80 24 89 67 34 78 24 88 96 88 55 66 47 19 39 64 17 14 31 35 14 44 24 43 16 29 31 94 47 23 13 55 39 71 96 62 16 43 28 56 96 97 43 10 50 66 90 22 77 48 61 78 38 14 99 43 17 49 22 93 31 13 59 45 76 51 18 67 33 64 25 81 36 87 63 51 34 31 55 17 98 90 49 94 45 88 16 47 62 95 53 22 73 96 14 78 35 35 29 20 65 52 71 54 34 28 36 39 57 84 93 49 11 20 77 37 94 90 84 37 75 17 27 11 56 23 100 31 33 58 33 40 95 33 11 68 13 71 27 95 100 74 58 93 16 62 64 13 84 48 73 11 94 67 24 78 40 57 87 88 95 11 39 88 80 99 90 88 92 80 57 77 53 11 84 49 43 20 83 76 70 41 42 32 36 29 53 89 14 41 17 52 51 21 35 83 12 71 62 26 13 18 24 99 62 69 27 81 20 20 52 66 32 96 17 19 14 39 20 71 29 71 31 90 15 76 21 73 52 65 72 46 76 42 15 18 11 93 27 90 60 41 61 20 40 29 50 25 53 63 16 55 75 64 79 95 100 31 99 
39 14 35 34 20 41 53 59 52 66 56 17 68 22 22 81 18 17 76 73 68 34 78 82 59 74 34 78 91 19 63 99 36 28 85 33 11 76 79 80 48 36 93 80 77 28 80 65 41 45 77 48 54 22 24 11 10 84 95 90 85 27 83 72 53 70 27 38 93 55 64 12 82 65 60 65 45 51 72 87 84 58 89 98 17 67 42 86 41 65 73 45 55 16 15 81 16 37 21 19 51 19 50 51 72 65 18 31 19 20 37 76 73 31 20 24 21 22 65 53 68 97 32 100 62 31 66 64 12 24 59 40 16 92 54 32 14 98 47 41 45 85 91 34 100 60 18 62 10 20 40 96 17 77 51 50 59 13 73 34 43 10 18 69 36 41 18 53 97 91 33 55 89 94 69 81 74 54 73 96 33 90 67 58 62 87 21 45 100 97 78 94 31 92 71 73 83 90 56 49 61 16 40 60 21 81 91 52 96 83 75 96 59 16 100 49 29 38 96 45 40 50 91 84 67 65 14 27 100 90 15 33 80 58 68 100 65 91 10 42 84 58 91 22 45 83 56 72 16 14 86 33 39 81 53 17 67 35 19 87 58 90 98 17 75 22 91 72 84 60 29 70 31 56 25 34 34 76 72 67 16 91 66 62 42 57 93 80 30 63 55 23 97 23 68 21 46 92 86 18 52 42 93 72 36 70 28 10 83 32 74 39 53 79 97 14 95 97 43 36 53 72 14 98 74 23 39 63 87 74 33 10 14 71 32 49 11 12 80 10 54 74 91 11 20 71 73 42 84 74 23 65 53 32 72 92 47 45 37 60 33 46 100 24 18 93 63 24 53 50 82 10 86 59 56 80 23 51 70 21 41 100 73 97 29 47 12 66 69 34 95 28 54 11 94 16 11 52 34 95 75 87 96 72 56 34 90 94 71 22 72 20 22 41 23 62 79 13 12 83 85 21 48 81 74 54 75 53 66 77 61 19 84 25 24 63 96 21 44 50 65 58 49 95 85 32 86 62 26 10 36 15 72 41 18 47 90 64 23 15 29 28 76 78 83 33 20 46 76 68 22 70 13 63 85 35 89 97 10 23 55 34 86 30 64 57 42 31 19 44 24 61 57 41 22 11 78 22 68 95 52 39 64 77 13 35 65 79 82 97 17 53 78 73 39 85 26 14 42 58 47 72 57 56 96 44 95 26 66 69 56 82 67 50 94 77 74 61 67 23 24 81 44 70 14 31 61 58 14 26 46 44 91 59 91 66 21 99 64 29 60 75 69 64 79 55 59 99 97 25 66 97 61 69 98 98 42 88 52 20 67 53 93 98 55 77 26 73 66 42 41 61 55 46 69 14 49 95 74 52 98 28 48 15 53 25 50 56 72 55 65 24 61 43 20 51 47 35 27 27 92 17 53 20 60 47 56 87 33 16 71 54 76 55 80 99 56 69 90 52 33 97 15 43 42 30 31 14 55 22 68 98 67 51 38 29 84 83 87 64 66 50 89 23 32 16 58 54 30 67 63 11 93 42 37 45 59 54 71 90 11 15 43 66 24 99 16 11 28 55 61 21 32 52 43 78 65 76 56 27 22 39 11 35 91 46 47 96 76 58 64 24 78 27 31 83 34 21 23 74 92 50 50 93 63 55 72 37 92 50 52 80 74 41 35 64 19 20 15 72 44 83 52 14 15 34 94 27 45 20 
20351 
