250 1 0 0
79 25 99 41 94 75 40 59 95 99 95 93 74 83 14 89 41 53 75 70 49 19 84 16 25 66 68 79 16 93 14 20 99 93 100 56 62 69 91 52 86 43 76 45 21 57 45 41 58 33 68 22 66 83 50 64 35 42 33 66 38 57 69 90 79 89 28 70 38 71 46 41 49 43 36 68 92 33 84 90 22 93 92 89 47 23 13 11 34 11 60 82 10 16 81 20 85 52 92 31 24 83 76 15 38 63 32 99 39 97 28 42 80 21 99 11 91 24 45 28 89 31 81 78 48 72 36 77 84 40 65 43 49 23 82 41 22 67 96 58 56 81 42 55 31 38 33 10 43 84 52 96 92 51 50 63 70 46 30 45 41 15 82 52 25 69 62 26 64 93 78 82 71 65 40 25 20 24 19 10 12 31 22 96 79 31 98 80 10 31 42 99 26 21 83 78 66 54 100 22 48 16 25 97 95 70 22 20 16 17 19 49 90 44 53 18 42 26 87 55 58 32 61 32 10 11 12 61 96 59 94 25 30 70 53 35 54 91 51 20 87 70 50 52 31 43 32 25 40 78 
100 49 54 12 78 30 65 31 90 50 80 84 53 72 94 60 74 58 17 24 45 19 33 39 91 69 48 56 84 66 60 95 49 63 22 71 83 36 15 64 28 49 41 14 17 28 65 27 65 28 21 17 33 68 51 91 97 28 91 82 54 12 47 33 30 65 56 57 91 88 77 99 29 23 39 86 12 85 22 64 33 95 32 10 44 56 86 38 72 10 57 30 28 92 68 54 34 93 35 41 46 82 66 15 89 70 46 43 60 36 63 18 67 13 12 94 19 65 59 28 91 37 24 86 23 100 38 21 42 58 91 26 69 72 89 34 84 30 24 62 20 45 11 24 54 61 14 97 79 65 68 93 54 36 41 62 90 10 58 57 46 85 19 15 15 44 70 17 25 24 37 45 97 85 64 46 74 86 89 12 83 24 40 99 27 28 65 57 66 75 50 42 34 12 59 100 12 61 98 14 68 64 46 87 68 33 43 28 24 25 29 13 59 20 66 84 16 40 69 55 73 85 25 17 81 32 74 90 88 11 98 59 12 93 16 97 37 59 57 16 73 74 65 12 33 28 66 17 88 86 
6536 
